<?xml version="1.0" encoding="iso-8859-1"?>
<!-- Generator: Adobe Illustrator 18.1.1, SVG Export Plug-In . SVG Version: 6.00 Build 0)  -->
<svg version="1.1" id="Capa_1" xmlns="http://www.w3.org/2000/svg" xmlns:xlink="http://www.w3.org/1999/xlink" x="0px" y="0px" width="11px" height="14px"
	 viewBox="0 0 86.002 86.002" style="enable-background:new 0 0 86.002 86.002;" xml:space="preserve">
<g>
	<path style="fill:#030104;" d="M80.093,64.999c1.353,1.338,3.544,1.338,4.896,0c1.35-1.338,1.352-3.506,0-4.847L45.445,21.004
		c-1.352-1.338-3.541-1.338-4.892,0L1.013,60.152c-1.35,1.341-1.352,3.507,0,4.847c1.352,1.338,3.543,1.338,4.895,0l37.091-35.703
		L80.093,64.999z"/>
</g>

</svg>
