<svg id="Layer_1" data-name="Layer 1" xmlns="http://www.w3.org/2000/svg" viewBox="0 0 30 30">
  <path d="M18.26,14l-2.33-.62L15.31,11l2.38-2.38A4.19,4.19,0,0,0,12.6,14h0l-5,4.91a2,2,0,0,0,2.8,2.8l5-5a4.19,4.19,0,0,0,5.18-5.14Z"/>
  <path d="M7.42,1.17,3.15,6.22V29.68H26.61V1.17ZM6.35,5.58,7.56,4.15V5.58ZM5.18,27.65v-20H9.59V3.2h15V27.65Z"/>
</svg>