<svg xmlns="http://www.w3.org/2000/svg" xmlns:xlink="http://www.w3.org/1999/xlink" width="32" height="32" viewBox="0 0 32 32">
  <defs>
  </defs>
    <path id="Union_6" data-name="Union 6" class="cls-1" d="M0,16A16,16,0,1,1,16,32,16,16,0,0,1,0,16Zm22.066,8.6a2.389,2.389,0,0,0,.466-4.731,18.27,18.27,0,0,0,.584-3.835.634.634,0,1,0-1.266-.011,10.28,10.28,0,0,1-.666,3.96l0,.011a2.4,2.4,0,0,0-1.333,1.336l-.252.1a10.3,10.3,0,0,1-7.546-.087,2.394,2.394,0,0,0-1.782-1.474l-.048-.125a10.3,10.3,0,0,1,.038-7.419,2.4,2.4,0,0,0,1.866-1.692A10.3,10.3,0,0,1,16.294,10a.747.747,0,0,0-.591-1.26,17.65,17.65,0,0,0-3.58.579A2.388,2.388,0,1,0,8.972,12.2a11.522,11.522,0,0,0,.01,7.78,2.388,2.388,0,1,0,3.181,2.731,11.468,11.468,0,0,0,7.565-.01A2.393,2.393,0,0,0,22.066,24.6ZM20.085,7.57l-7.259,7.259a.581.581,0,0,0-.169.459c.086,1.028.1,2.159.113,3.324a.583.583,0,0,0,.577.577c1.155.011,2.278.027,3.325.113l.047,0a.58.58,0,0,0,.412-.171l7.257-7.258a.579.579,0,0,0,.143-.592,6,6,0,0,0-3.855-3.856A.59.59,0,0,0,20.5,7.4.58.58,0,0,0,20.085,7.57Zm.838,14.641a1.142,1.142,0,1,1,1.143,1.142A1.143,1.143,0,0,1,20.924,22.212Zm-12.238,0a1.142,1.142,0,1,1,1.142,1.142A1.142,1.142,0,0,1,8.685,22.212ZM13.93,18.03c-.008-.73-.028-1.556-.077-2.35a4.528,4.528,0,0,1,2.428,2.427C15.5,18.058,14.693,18.04,13.93,18.03Zm.3-2.957,5.5-5.5,2.658,2.657-5.5,5.5A5.242,5.242,0,0,0,14.231,15.073Zm6-6,.413-.414A4.845,4.845,0,0,1,23.3,11.315l-.412.412Zm-11.548.9a1.142,1.142,0,1,1,1.142,1.143A1.142,1.142,0,0,1,8.685,9.973Z" fill="#58595b"/> 
</svg>
